Lecture 10 | STAT 2102: Applied Statistical Computing
…
relocate() - changes the order of the columns

Groups of rows:

group_by() - changes the scope of each function from operating on the entire data set to operating on it group-by-group

summarize() - collapses a group into a single row

filter() Function

filter() allows you to subset observations based on their values. The first argument is the name of the data frame, the second and subsequent arguments are the expressions that filter the data frame. For instance, let’s select all flights on January 1st:

filter(flights, month == 1, day == 1)
#> # A tibble: 842 × 19
#>     year month   day dep_time sched_dep_time dep_delay
#>    <int> <int> <int>    <int>          <int>     <int>
#>  1  2013     1     1      517            515         2
#>  2  2013     1     1      533            529         4
#>  3  2013     1     1      542            540         2
#>  4  2013     1     1      544            545        -1
#>  5  2013     1     1      554            600        -6
#>  6  2013     1     1      554            558        -4
#>  7  2013     1     1      555            600        -5
#>  8  2013     1     1      557            600        -3
#>  9  2013     1     1      557            600        -3
#> 10  2013     1     1      558            600        -2
#> # ℹ 832 more rows
#> # ℹ 13 more variables: arr_time <int>,
#> #   sched_arr_time <int>, arr_delay <int>, carrier <chr>,
#> #   flight <int>, tailnum <chr>, origin <chr>, dest <chr>,
#> #   air_time <int>, distance <int>, hour <int>,
#> #   minute <int>, time_hour <chr>

When you run that line of code, dplyr executes the filtering operation and returns a new data frame. dplyr functions never modify their inputs, so if you want to save the result, you’ll need to use the assignment operator, <- :

jan1 <- filter(flights, month == 1, day == 1)

Let’s find all flights that departed in November or December:

filter(flights, month == 11 | month == 12)
#> # A tibble: 55,403 × 19
#>     year month   day dep_time sched_dep_time dep_delay
#>    <int> <int> <int>    <int>          <int>     <int>
#>  1  2013    11     1        5           2359         6
#>  2  2013    11     1       35           2250       105
#>  3  2013    11     1      455            500        -5
#>  4  2013    11     1      539            545        -6
#>  5  2013    11     1      542            545        -3
#>  6  2013    11     1      549            600       -11
#>  7  2013    11     1      550            600       -10
#>  8  2013    11     1      554            600        -6
#>  9  2013    11     1      554            600        -6
#> 10  2013    11     1      554            600        -6
#> # ℹ 55,393 more rows
#> # ℹ 13 more variables: arr_time <int>,
#> #   sched_arr_time <int>, arr_delay <int>, carrier <chr>,
#> #   flight <int>, tailnum <chr>, origin <chr>, dest <chr>,
#> #   air_time <int>, distance <int>, hour <int>,
#> #   minute <int>, time_hour <chr>

We could do the same operation using the %in% operator:

filter(flights, month %in% c(11, 12))
#> # A tibble: 55,403 × 19
#>     year month   day dep_time sched_dep_time dep_delay
#>    <int> <int> <int>    <int>          <int>     <int>
#>  1  2013    11     1        5           2359         6
#>  2  2013    11     1       35           2250       105
#>  3  2013    11     1      455            500        -5
#>  4  2013    11     1      539            545        -6
#>  5  2013    11     1      542            545        -3
#>  6  2013    11     1      549            600       -11
#>  7  2013    11     1      550            600       -10
#>  8  2013    11     1      554            600        -6
#>  9  2013    11     1      554            600        -6
#> 10  2013    11     1      554            600        -6
#> # ℹ 55,393 more rows
#> # ℹ 13 more variables: arr_time <int>,
#> #   sched_arr_time <int>, arr_delay <int>, carrier <chr>,
#> #   flight <int>, tailnum <chr>, origin <chr>, dest <chr>,
#> #   air_time <int>, distance <int>, hour <int>,
#> #   minute <int>, time_hour <chr>
…
Let’s select all rows except the first four (this option can be used to drop some observations from a data set):

slice(flights, -(1:4))
#> # A tibble: 336,772 × 19
#>     year month   day dep_time sched_dep_time dep_delay
#>    <int> <int> <int>    <int>          <int>     <int>
#>  1  2013     1     1      554            600        -6
#>  2  2013     1     1      554            558        -4
#>  3  2013     1     1      555            600        -5
#>  4  2013     1     1      557            600        -3
#>  5  2013     1     1      557            600        -3
#>  6  2013     1     1      558            600        -2
#>  7  2013     1     1      558            600        -2
#>  8  2013     1     1      558            600        -2
#>  9  2013     1     1      558            600        -2
#> 10  2013     1     1      558            600        -2
#> # ℹ 336,762 more rows
#> # ℹ 13 more variables: arr_time <int>,
#> #   sched_arr_time <int>, arr_delay <int>, carrier <chr>,
#> #   flight <int>, tailnum <chr>, origin <chr>, dest <chr>,
#> #   air_time <int>, distance <int>, hour <int>,
#> #   minute <int>, time_hour <chr>
…
slice_sample(flights, prop = 0.001)
#> # A tibble: 336 × 19
#>     year month   day dep_time sched_dep_time dep_delay
#>    <int> <int> <int>    <int>          <int>     <int>
#>  1  2013    12    20     1530           1530         0
#>  2  2013     2    18     1601           1600         1
#>  3  2013    12    28     2135           2145       -10
#>  4  2013     1    24      629            635        -6
#>  5  2013     8    30     1153           1159        -6
#>  6  2013     1    10      751            755        -4
#>  7  2013    10    26     2132           2140        -8
#>  8  2013     9     7     1650           1655        -5
#>  9  2013     2     2     1729           1729         0
#> 10  2013     6     1     1059           1105        -6
#> # ℹ 326 more rows
#> # ℹ 13 more variables: arr_time <int>,
#> #   sched_arr_time <int>, arr_delay <int>, carrier <chr>,
#> #   flight <int>, tailnum <chr>, origin <chr>, dest <chr>,
#> #   air_time <int>, distance <int>, hour <int>,
#> #   minute <int>, time_hour <chr>

Use replace = TRUE to take a sample with replacement.

arrange() Function

The arrange() function is used to change the order of rows in a data set. It takes a data frame and a set of column names (or more complicated expressions) to order by. If you provide more than one column name, each additional column will be used to break ties in the values of preceding columns:

arrange(flights, year, month, day)
#> # A tibble: 336,776 × 19
#>     year month   day dep_time sched_dep_time dep_delay
#>    <int> <int> <int>    <int>          <int>     <int>
#>  1  2013     1     1      517            515         2
#>  2  2013     1     1      533            529         4
#>  3  2013     1     1      542            540         2
#>  4  2013     1     1      544            545        -1
#>  5  2013     1     1      554            600        -6
#>  6  2013     1     1      554            558        -4
#>  7  2013     1     1      555            600        -5
#>  8  2013     1     1      557            600        -3
#>  9  2013     1     1      557            600        -3
#> 10  2013     1     1      558            600        -2
#> # ℹ 336,766 more rows
#> # ℹ 13 more variables: arr_time <int>,
#> #   sched_arr_time <int>, arr_delay <int>, carrier <chr>,
#> #   flight <int>, tailnum <chr>, origin <chr>, dest <chr>,
#> #   air_time <int>, distance <int>, hour <int>,
#> #   minute <int>, time_hour <chr>

Use desc() to re-order by a column in descending order:

arrange(flights, desc(dep_delay))
#> # A tibble: 336,776 × 19
#>     year month   day dep_time sched_dep_time dep_delay
#>    <int> <int> <int>    <int>          <int>     <int>
#>  1  2013     1     9      641            900      1301
#>  2  2013     6    15     1432           1935      1137
#>  3  2013     1    10     1121           1635      1126
#>  4  2013     9    20     1139           1845      1014
#>  5  2013     7    22      845           1600      1005
#>  6  2013     4    10     1100           1900       960
#>  7  2013     3    17     2321            810       911
#>  8  2013     6    27      959           1900       899
#>  9  2013     7    22     2257            759       898
#> 10  2013    12     5      756           1700       896
#> # ℹ 336,766 more rows
#> # ℹ 13 more variables: arr_time <int>,
#> #   sched_arr_time <int>, arr_delay <int>, carrier <chr>,
#> #   flight <int>, tailnum <chr>, origin <chr>, dest <chr>,
#> #   air_time <int>, distance <int>, hour <int>,
#> #   minute <int>, time_hour <chr>

select() Function

Often you work with large data sets with many columns but only a few are actually of interest to you. select() function allows you to rapidly zoom in on a useful subset. You can select columns by name:

select(flights, year, month, day)
#> # A tibble: 336,776 × 3
#>     year month   day
#>    <int> <int> <int>
#>  1  2013     1     1
#>  2  2013     1     1
#>  3  2013     1     1
#>  4  2013     1     1
#>  5  2013     1     1
#>  6  2013     1     1
#>  7  2013     1     1
#>  8  2013     1     1
#>  9  2013     1     1
#> 10  2013     1     1
#> # ℹ 336,766 more rows

You can select all columns between two variables (inclusive):

select(flights, year:day)
#> # A tibble: 336,776 × 3
#>     year month   day
#>    <int> <int> <int>
#>  1  2013     1     1
#>  2  2013     1     1
#>  3  2013     1     1
#>  4  2013     1     1
#>  5  2013     1     1
#>  6  2013     1     1
#>  7  2013     1     1
#>  8  2013     1     1
#>  9  2013     1     1
#> 10  2013     1     1
#> # ℹ 336,766 more rows

You can select all columns except some:

select(flights, -(year:day))
#> # A tibble: 336,776 × 16
#>    dep_time sched_dep_time dep_delay arr_time sched_arr_time
#>       <int>          <int>     <int>    <int>          <int>
#>  1      517            515         2      830            819
#>  2      533            529         4      850            830
#>  3      542            540         2      923            850
#>  4      544            545        -1     1004           1022
#>  5      554            600        -6      812            837
#>  6      554            558        -4      740            728
#>  7      555            600        -5      913            854
#>  8      557            600        -3      709            723
#>  9      557            600        -3      838            846
#> 10      558            600        -2      753            745
#> # ℹ 336,766 more rows
#> # ℹ 11 more variables: arr_delay <int>, carrier <chr>,
#> #   flight <int>, tailnum <chr>, origin <chr>, dest <chr>,
#> #   air_time <int>, distance <int>, hour <int>,
#> #   minute <int>, time_hour <chr>

You can do the same operation with ! operator:

select(flights, !(year:day))
#> # A tibble: 336,776 × 16
#>    dep_time sched_dep_time dep_delay arr_time sched_arr_time
#>       <int>          <int>     <int>    <int>          <int>
#>  1      517            515         2      830            819
#>  2      533            529         4      850            830
#>  3      542            540         2      923            850
#>  4      544            545        -1     1004           1022
#>  5      554            600        -6      812            837
#>  6      554            558        -4      740            728
#>  7      555            600        -5      913            854
#>  8      557            600        -3      709            723
#>  9      557            600        -3      838            846
#> 10      558            600        -2      753            745
#> # ℹ 336,766 more rows
#> # ℹ 11 more variables: arr_delay <int>, carrier <chr>,
#> #   flight <int>, tailnum <chr>, origin <chr>, dest <chr>,
#> #   air_time <int>, distance <int>, hour <int>,
#> #   minute <int>, time_hour <chr>

You can use column indexes for column selection:

select(flights, c(1, 5, 8))
#> # A tibble: 336,776 × 3
#>     year sched_dep_time sched_arr_time
#>    <int>          <int>          <int>
#>  1  2013            515            819
#>  2  2013            529            830
#>  3  2013            540            850
#>  4  2013            545           1022
#>  5  2013            600            837
#>  6  2013            558            728
#>  7  2013            600            854
#>  8  2013            600            723
#>  9  2013            600            846
#> 10  2013            600            745
#> # ℹ 336,766 more rows

There are a number of helper functions you can use within select(). For example, starts_with(), ends_with(), matches() and contains(). These let you quickly match larger blocks of variables that meet some criterion.

Let’s select all columns that start with “sched”:

select(flights, starts_with("sched"))
#> # A tibble: 336,776 × 2
#>    sched_dep_time sched_arr_time
#>             <int>          <int>
#>  1            515            819
#>  2            529            830
#>  3            540            850
#>  4            545           1022
#>  5            600            837
#>  6            558            728
#>  7            600            854
#>  8            600            723
#>  9            600            846
#> 10            600            745
#> # ℹ 336,766 more rows

You can select all columns in the data set that end with “time”:

select(flights, ends_with("time"))
#> # A tibble: 336,776 × 5
#>    dep_time sched_dep_time arr_time sched_arr_time air_time
#>       <int>          <int>    <int>          <int>    <int>
#>  1      517            515      830            819      227
#>  2      533            529      850            830      227
#>  3      542            540      923            850      160
#>  4      544            545     1004           1022      183
#>  5      554            600      812            837      116
#>  6      554            558      740            728      150
#>  7      555            600      913            854      158
#>  8      557            600      709            723       53
#>  9      557            600      838            846      140
#> 10      558            600      753            745      138
#> # ℹ 336,766 more rows

Or suppose you want to select all columns in the data set that contain “ar”:

select(flights, contains("ar"))
#> # A tibble: 336,776 × 5
#>     year arr_time sched_arr_time arr_delay carrier
#>    <int>    <int>          <int>     <int> <chr>  
#>  1  2013      830            819        11 UA     
#>  2  2013      850            830        20 UA     
#>  3  2013      923            850        33 AA     
#>  4  2013     1004           1022       -18 B6     
#>  5  2013      812            837       -25 DL     
#>  6  2013      740            728        12 UA     
#>  7  2013      913            854        19 B6     
#>  8  2013      709            723       -14 EV     
#>  9  2013      838            846        -8 B6     
#> 10  2013      753            745         8 AA     
#> # ℹ 336,766 more rows

You can even combine these arguments:

select(flights, starts_with("sched") & ends_with("time"))
#> # A tibble: 336,776 × 2
#>    sched_dep_time sched_arr_time
#>             <int>          <int>
#>  1            515            819
#>  2            529            830
#>  3            540            850
#>  4            545           1022
#>  5            600            837
#>  6            558            728
#>  7            600            854
#>  8            600            723
#>  9            600            846
#> 10            600            745
#> # ℹ 336,766 more rows

rename() Function

Use rename() function to rename columns in a data frame. Suppose we want to rename the “year” and “month” variables and make them uppercase:

rename(flights, YEAR = year, MONTH = month)
#> # A tibble: 336,776 × 19
#>     YEAR MONTH   day dep_time sched_dep_time dep_delay
#>    <int> <int> <int>    <int>          <int>     <int>
#>  1  2013     1     1      517            515         2
#>  2  2013     1     1      533            529         4
#>  3  2013     1     1      542            540         2
#>  4  2013     1     1      544            545        -1
#>  5  2013     1     1      554            600        -6
#>  6  2013     1     1      554            558        -4
#>  7  2013     1     1      555            600        -5
#>  8  2013     1     1      557            600        -3
#>  9  2013     1     1      557            600        -3
#> 10  2013     1     1      558            600        -2
#> # ℹ 336,766 more rows
#> # ℹ 13 more variables: arr_time <int>,
#> #   sched_arr_time <int>, arr_delay <int>, carrier <chr>,
#> #   flight <int>, tailnum <chr>, origin <chr>, dest <chr>,
#> #   air_time <int>, distance <int>, hour <int>,
#> #   minute <int>, time_hour <chr>

relocate() Function

relocate() function allows to change the positions of columns in a data frame. It has two useful arguments .before and .after that helps precisely select a location for a variable:

relocate(flights, year, .after = month)
#> # A tibble: 336,776 × 19
#>    month  year   day dep_time sched_dep_time dep_delay
#>    <int> <int> <int>    <int>          <int>     <int>
#>  1     1  2013     1      517            515         2
#>  2     1  2013     1      533            529         4
#>  3     1  2013     1      542            540         2
#>  4     1  2013     1      544            545        -1
#>  5     1  2013     1      554            600        -6
#>  6     1  2013     1      554            558        -4
#>  7     1  2013     1      555            600        -5
#>  8     1  2013     1      557            600        -3
#>  9     1  2013     1      557            600        -3
#> 10     1  2013     1      558            600        -2
#> # ℹ 336,766 more rows
#> # ℹ 13 more variables: arr_time <int>,
#> #   sched_arr_time <int>, arr_delay <int>, carrier <chr>,
#> #   flight <int>, tailnum <chr>, origin <chr>, dest <chr>,
#> #   air_time <int>, distance <int>, hour <int>,
#> #   minute <int>, time_hour <chr>

relocate(flights, c(year, month), .before = dep_delay)
#> # A tibble: 336,776 × 19
#>      day dep_time sched_dep_time  year month dep_delay
#>    <int>    <int>          <int> <int> <int>     <int>
#>  1     1      517            515  2013     1         2
#>  2     1      533            529  2013     1         4
#>  3     1      542            540  2013     1         2
#>  4     1      544            545  2013     1        -1
#>  5     1      554            600  2013     1        -6
#>  6     1      554            558  2013     1        -4
#>  7     1      555            600  2013     1        -5
#>  8     1      557            600  2013     1        -3
#>  9     1      557            600  2013     1        -3
#> 10     1      558            600  2013     1        -2
#> # ℹ 336,766 more rows
#> # ℹ 13 more variables: arr_time <int>,
#> #   sched_arr_time <int>, arr_delay <int>, carrier <chr>,
#> #   flight <int>, tailnum <chr>, origin <chr>, dest <chr>,
#> #   air_time <int>, distance <int>, hour <int>,
#> #   minute <int>, time_hour <chr>
…
