Lecture 11 | STAT 2102: Applied Statistical Computing
…
Lecture 11

dplyr Package (continued)

We continue working with the nyc_flights data set that provides information about flights departed New York City in 2013 (the data set is available on Courseworks). It contains 336 776 observations (rows) and 19 variables (columns).

group_by(), summarise(), and across() Functions

Most data operations are done on groups defined by variables. dplyr verbs are particularly powerful when you apply them to grouped data frames. The most important grouping verb is group_by(). It takes an existing data frame and converts it into a grouped data frame where operations are performed “by group”. In other words, it takes a data frame and one or more variables to group by:

by_origin <- flights %>% group_by(origin)

by_origin
#> # A tibble: 336,776 × 19
#> # Groups:   origin [3]
#>     year month   day dep_time sched_dep_time dep_delay
#>    <int> <int> <int>    <int>          <int>     <int>
#>  1  2013     1     1      517            515         2
#>  2  2013     1     1      533            529         4
#>  3  2013     1     1      542            540         2
#>  4  2013     1     1      544            545        -1
#>  5  2013     1     1      554            600        -6
#>  6  2013     1     1      554            558        -4
#>  7  2013     1     1      555            600        -5
#>  8  2013     1     1      557            600        -3
#>  9  2013     1     1      557            600        -3
#> 10  2013     1     1      558            600        -2
#> # ℹ 336,766 more rows
#> # ℹ 13 more variables: arr_time <int>,
#> #   sched_arr_time <int>, arr_delay <int>, carrier <fct>,
#> #   flight <int>, tailnum <fct>, origin <fct>, dest <fct>,
#> #   air_time <int>, distance <int>, hour <int>,
#> #   minute <int>, time_hour <fct>

by_origin_carrier <- flights %>% group_by(origin, carrier)

by_origin_carrier
#> # A tibble: 336,776 × 19
#> # Groups:   origin, carrier [35]
#>     year month   day dep_time sched_dep_time dep_delay
#>    <int> <int> <int>    <int>          <int>     <int>
#>  1  2013     1     1      517            515         2
#>  2  2013     1     1      533            529         4
#>  3  2013     1     1      542            540         2
#>  4  2013     1     1      544            545        -1
#>  5  2013     1     1      554            600        -6
#>  6  2013     1     1      554            558        -4
#>  7  2013     1     1      555            600        -5
#>  8  2013     1     1      557            600        -3
#>  9  2013     1     1      557            600        -3
#> 10  2013     1     1      558            600        -2
#> # ℹ 336,766 more rows
#> # ℹ 13 more variables: arr_time <int>,
#> #   sched_arr_time <int>, arr_delay <int>, carrier <fct>,
#> #   flight <int>, tailnum <fct>, origin <fct>, dest <fct>,
#> #   air_time <int>, distance <int>, hour <int>,
#> #   minute <int>, time_hour <fct>
…
It’s often useful to perform the same operation on multiple columns, but copying and pasting is both tedious and error prone. For example:

flights %>% 
  
  group_by(origin, carrier) %>%
  
  summarise(Mean_dep_delay = mean(dep_delay, na.rm = T),
            
            Mean_arrival_delay = mean(arr_delay, na.rm = T),
            
            Mean_air_time = mean(air_time, na.rm = T))
#> `summarise()` has grouped output by 'origin'. You can
#> override using the `.groups` argument.
#> # A tibble: 35 × 5
#> # Groups:   origin [3]
#>    origin carrier Mean_dep_delay Mean_arrival_delay
#>    <fct>  <fct>            <dbl>              <dbl>
#>  1 EWR    9E                5.95              1.62 
#>  2 EWR    AA               10.0               0.978
#>  3 EWR    AS                5.80             -9.93 
#>  4 EWR    B6               13.1               9.39 
#>  5 EWR    DL               12.1               8.78 
#>  6 EWR    EV               20.2              17.0  
#>  7 EWR    MQ               17.5              16.3  
#>  8 EWR    OO               20.8              21.5  
#>  9 EWR    UA               12.5               3.48 
#> 10 EWR    US                3.74              0.977
#> # ℹ 25 more rows
#> # ℹ 1 more variable: Mean_air_time <dbl>
…
flights %>% 
  
  group_by(origin, carrier) %>%
  
  summarise(across(
    
    c(dep_delay, arr_delay, air_time),
    
    ~ mean(.x, na.rm = T)
    
  ))
#> `summarise()` has grouped output by 'origin'. You can
#> override using the `.groups` argument.
#> # A tibble: 35 × 5
#> # Groups:   origin [3]
#>    origin carrier dep_delay arr_delay air_time
#>    <fct>  <fct>       <dbl>     <dbl>    <dbl>
#>  1 EWR    9E           5.95     1.62     103. 
#>  2 EWR    AA          10.0      0.978    196. 
#>  3 EWR    AS           5.80    -9.93     326. 
#>  4 EWR    B6          13.1      9.39     118. 
#>  5 EWR    DL          12.1      8.78     125. 
#>  6 EWR    EV          20.2     17.0       94.0
#>  7 EWR    MQ          17.5     16.3      112. 
#>  8 EWR    OO          20.8     21.5      137. 
#>  9 EWR    UA          12.5      3.48     207. 
#> 10 EWR    US           3.74     0.977    138. 
#> # ℹ 25 more rows
…
